Chapitre 5 Manipuler des données | Préparer ses données avec R et le Tidyverse
…
Exemple pour calculer les statistiques précédentes par mois :

exercice <- mutate (exercice,
                    annee = year (date_prelevement))

paran <- group_by (exercice, annee)

summarise (paran, 
           mesure_moyenne = mean (resultat_analyse, na.rm = T),
           mesure_total = sum (resultat_analyse, na.rm = T)
          )

## # A tibble: 26 x 3
##    annee mesure_moyenne mesure_total
##    <dbl>          <dbl>        <dbl>
##  1  1991         0.0981         4.32
##  2  1992         0.137          8.33
##  3  1993         0.123          6.14
##  4  1994         0.0684         4.72
##  5  1995         0.0803         6.99
##  6  1996         0.0915         6.86
##  7  1997         0.0529         5.14
##  8  1998         0.131         46.5 
##  9  1999         0.0547        89.7 
## 10  2000         0.118        191.  
## # ... with 16 more rows
…
En reprenant l’exemple précédent, sans passer par les étapes intermédiaires, le code aurait cette tête :

summarise (
  group_by (
    mutate (
      exercice,
      annee = year (date_prelevement)
            ),
      annee
            ), 
          mesure_moyenne = mean (resultat_analyse, na.rm = T),
          mesure_total = sum (resultat_analyse, na.rm = T)
          )

## # A tibble: 26 x 3
##    annee mesure_moyenne mesure_total
##    <dbl>          <dbl>        <dbl>
##  1  1991         0.0981         4.32
##  2  1992         0.137          8.33
##  3  1993         0.123          6.14
##  4  1994         0.0684         4.72
##  5  1995         0.0803         6.99
##  6  1996         0.0915         6.86
##  7  1997         0.0529         5.14
##  8  1998         0.131         46.5 
##  9  1999         0.0547        89.7 
## 10  2000         0.118        191.  
## # ... with 16 more rows

Avec l’utilisation du pipe (raccourci clavier CTrl + Maj + M), il devient :

exercice %>%
  mutate (annee = year (date_prelevement)) %>%
  group_by (annee) %>%
    summarise (mesure_moyenne = mean (resultat_analyse, na.rm = T),
               mesure_total = sum (resultat_analyse, na.rm = T))

## # A tibble: 26 x 3
##    annee mesure_moyenne mesure_total
##    <dbl>          <dbl>        <dbl>
##  1  1991         0.0981         4.32
##  2  1992         0.137          8.33
##  3  1993         0.123          6.14
##  4  1994         0.0684         4.72
##  5  1995         0.0803         6.99
##  6  1996         0.0915         6.86
##  7  1997         0.0529         5.14
##  8  1998         0.131         46.5 
##  9  1999         0.0547        89.7 
## 10  2000         0.118        191.  
## # ... with 16 more rows
…
